Data2/T0000ALL.CSV

Model,DPO2024B
Firmware Version,1.52

Point Format,Y,,,
Horizontal Units,S,,,
Horizontal Scale,0.01,,,
Sample Interval,8e-07,,,
Filter Frequency,2e+08,,,
Record Length,125000,,,
Gating,0.0% to 100.0%,,0.0% to 100.0%,
Probe Attenuation,10,,500,
Vertical Units,A,,V,
Vertical Offset,0,,0,
Vertical Scale,5,,1000,
Label,,,,
TIME,CH2,CH2 Peak Detect,CH4,CH4 Peak Detect
-5.00000e-02,-1.7,-1.7,20,60
-4.99992e-02,-2.1,-2.1,20,-20
-4.99984e-02,-1.9,-1.5,20,60
-4.99976e-02,-1.9,-2.1,20,-20
-4.99968e-02,-1.9,-1.7,20,60
-4.99960e-02,-1.9,-2.1,20,-20
-4.99952e-02,-1.9,-1.7,20,60
-4.99944e-02,-1.9,-2.5,20,-20
-4.99936e-02,-2.1,-1.7,20,60
-4.99928e-02,-1.9,-2.3,20,-20
-4.99920e-02,-2.1,-1.7,20,60
-4.99912e-02,-2.1,-2.3,20,-20
-4.99904e-02,-1.9,-1.7,20,60
-4.99896e-02,-1.9,-2.3,20,-20
-4.99888e-02,-1.5,-1.7,340,60
-4.99880e-02,-1.9,-2.3,580,-20
-4.99872e-02,-1.9,-1.5,580,380
-4.99864e-02,-1.9,-2.1,580,340
-4.99856e-02,-2.1,-1.3,580,660
-4.99848e-02,-2.1,-2.1,580,540
-4.99840e-02,-2.1,-1.7,580,620
-4.99832e-02,-1.7,-2.1,580,540
-4.99824e-02,-1.9,-1.7,580,620
-4.99816e-02,-1.9,-2.3,580,540
-4.99808e-02,-1.9,-1.7,580,620
-4.99800e-02,-1.9,-2.3,580,540
-4.99792e-02,-1.7,-1.7,580,620
-4.99784e-02,-1.9,-2.3,620,540
-4.99776e-02,-1.9,-1.5,620,620
-4.99768e-02,-1.7,-2.1,580,540
-4.99760e-02,-1.7,-1.5,580,620
-4.99752e-02,-1.7,-2.1,580,540
-4.99744e-02,-1.7,-1.5,580,620
-4.99736e-02,-1.7,-2.1,580,540
-4.99728e-02,-1.7,-1.5,580,620
-4.99720e-02,-1.7,-2.1,580,540
-4.99712e-02,-1.7,-1.5,580,620
-4.99704e-02,-1.9,-2.1,580,540
-4.99696e-02,-1.9,-1.5,580,620
-4.99688e-02,-1.7,-2.1,580,540
-4.99680e-02,-1.7,-1.5,580,620
-4.99672e-02,-1.7,-2.1,620,540
-4.99664e-02,-1.9,-1.5,580,620
-4.99656e-02,-1.7,-2.1,620,540
-4.99648e-02,-1.9,-1.5,580,620
-4.99640e-02,-1.9,-2.1,540,540
-4.99632e-02,-1.7,-1.5,580,620
-4.99624e-02,-1.7,-2.1,580,540
-4.99616e-02,-1.7,-1.5,580,620
-4.99608e-02,-1.5,-2.1,580,540
-4.99600e-02,-1.7,-1.5,580,620
-4.99592e-02,-1.7,-2.1,580,540
-4.99584e-02,-1.9,-1.5,580,620
-4.99576e-02,-1.7,-2.1,580,540
-4.99568e-02,-1.7,-1.5,620,620
-4.99560e-02,-1.7,-1.9,580,540
-4.99552e-02,-1.7,-1.5,580,620
-4.99544e-02,-1.5,-1.9,580,540
-4.99536e-02,-1.7,-1.3,460,620
-4.99528e-02,-1.9,-1.9,180,420
-4.99520e-02,-1.7,-1.3,20,620
-4.99512e-02,-1.7,-1.9,20,-20
-4.99504e-02,-1.7,-1.3,20,460
-4.99496e-02,-1.7,-2.1,20,-20
-4.99488e-02,-1.5,-1.5,-20,60
-4.99480e-02,-1.7,-1.9,20,-20
-4.99472e-02,-1.5,-1.3,20,60
-4.99464e-02,-1.7,-1.9,20,-20
-4.99456e-02,-1.7,-1.3,20,60
-4.99448e-02,-1.7,-1.9,20,-20
-4.99440e-02,-1.7,-1.3,20,60
-4.99432e-02,-1.5,-1.9,20,-20
-4.99424e-02,-1.7,-1.3,20,60
-4.99416e-02,-1.7,-1.9,-20,-20
-4.99408e-02,-1.7,-1.5,-20,60
-4.99400e-02,-1.7,-1.9,20,-20
-4.99392e-02,-1.7,-1.5,20,60
-4.99384e-02,-1.7,-2.1,20,-20
-4.99376e-02,-1.7,-1.5,20,60
-4.99368e-02,-1.7,-1.9,20,-20
-4.99360e-02,-1.9,-1.5,20,60
-4.99352e-02,-1.7,-1.9,20,-20
-4.99344e-02,-1.7,-1.5,20,60
-4.99336e-02,-1.7,-1.9,20,-20
-4.99328e-02,-1.9,-1.5,20,60
-4.99320e-02,-1.9,-2.1,20,-20
-4.99312e-02,-1.9,-1.5,20,60
-4.99304e-02,-1.7,-2.1,20,-20
-4.99296e-02,-1.7,-1.5,20,60
-4.99288e-02,-1.7,-2.1,20,-20
-4.99280e-02,-1.7,-1.5,20,60
-4.99272e-02,-1.7,-1.9,20,-20
-4.99264e-02,-1.7,-1.5,20,60
-4.99256e-02,-1.9,-2.1,20,-20
-4.99248e-02,-1.7,-1.5,20,60
-4.99240e-02,-1.7,-2.1,20,-20
-4.99232e-02,-1.9,-1.5,20,60
-4.99224e-02,-1.7,-2.1,20,-20
-4.99216e-02,-1.7,-1.5,20,60
-4.99208e-02,-1.9,-2.1,20,-20
-4.99200e-02,-1.9,-1.5,20,60
-4.99192e-02,-1.7,-2.1,20,-20
-4.99184e-02,-1.9,-1.5,20,60
-4.99176e-02,-1.7,-2.1,20,-20
-4.99168e-02,-1.9,-1.5,20,60
-4.99160e-02,-1.7,-2.1,20,-20
-4.99152e-02,-1.7,-1.5,20,60
-4.99144e-02,-1.7,-2.1,20,-20
-4.99136e-02,-1.9,-1.5,20,60
-4.99128e-02,-1.7,-2.1,20,-20
-4.99120e-02,-1.7,-1.5,20,60
-4.99112e-02,-1.7,-2.1,20,-20
-4.99104e-02,-2.1,-1.5,20,60
-4.99096e-02,-1.9,-2.1,20,-20
-4.99088e-02,-1.7,-1.5,20,60
-4.99080e-02,-1.7,-2.1,20,-20
-4.99072e-02,-1.9,-1.5,20,60
-4.99064e-02,-1.7,-2.1,20,-20
-4.99056e-02,-1.9,-1.5,20,60
-4.99048e-02,-1.7,-2.1,20,-20
-4.99040e-02,-1.9,-1.5,20,60
-4.99032e-02,-1.7,-2.1,20,-20
-4.99024e-02,-1.7,-1.5,-20,60
-4.99016e-02,-1.9,-2.1,20,-20
-4.99008e-02,-1.7,-1.5,20,60
-4.99000e-02,-1.9,-2.1,20,-20
-4.98992e-02,-1.7,-1.5,20,60
-4.98984e-02,-1.7,-2.1,20,-20
-4.98976e-02,-1.9,-1.7,20,60
-4.98968e-02,-1.7,-2.1,60,-20
-4.98960e-02,-1.7,-1.5,100,60
-4.98952e-02,-1.7,-2.1,580,-20
-4.98944e-02,-1.7,-1.5,580,140
-4.98936e-02,-1.9,-2.1,620,60
-4.98928e-02,-1.7,-1.5,580,620
-4.98920e-02,-1.9,-2.1,580,540
-4.98912e-02,-1.7,-1.5,580,620
-4.98904e-02,-1.7,-2.1,580,540
-4.98896e-02,-1.5,-1.5,580,620
-4.98888e-02,-1.7,-2.1,580,540
-4.98880e-02,-1.7,-1.5,580,620
-4.98872e-02,-1.7,-2.1,580,540
-4.98864e-02,-1.7,-1.5,580,620
-4.98856e-02,-1.9,-2.1,580,540
-4.98848e-02,-1.7,-1.5,580,620
-4.98840e-02,-1.7,-2.1,580,540
-4.98832e-02,-1.9,-1.5,580,620
-4.98824e-02,-1.7,-1.9,580,540
-4.98816e-02,-1.7,-1.5,620,620
-4.98808e-02,-1.5,-1.9,580,540
-4.98800e-02,-1.7,-1.5,580,620
-4.98792e-02,-1.7,-1.9,580,540
-4.98784e-02,-1.5,-1.5,580,620
-4.98776e-02,-1.7,-1.9,580,540
-4.98768e-02,-1.9,-1.5,580,620
-4.98760e-02,-1.7,-1.9,540,540
-4.98752e-02,-1.7,-1.5,580,620
-4.98744e-02,-1.5,-1.9,580,540
-4.98736e-02,-1.7,-1.3,580,620
-4.98728e-02,-1.7,-1.9,580,540
-4.98720e-02,-1.7,-1.5,580,620
-4.98712e-02,-1.7,-1.9,580,540
-4.98704e-02,-1.7,-1.5,580,620
-4.98696e-02,-1.7,-1.9,580,540
-4.98688e-02,-1.5,-1.3,580,620
-4.98680e-02,-1.5,-1.9,580,540
-4.98672e-02,-1.5,-1.3,580,620
-4.98664e-02,-1.5,-1.9,580,540
-4.98656e-02,-1.5,-1.3,580,620
-4.98648e-02,-1.5,-1.7,580,540
-4.98640e-02,-1.5,-1.3,580,620
-4.98632e-02,-1.7,-1.9,580,540
-4.98624e-02,-1.7,-1.3,580,620
-4.98616e-02,-1.7,-1.9,580,540
-4.98608e-02,-1.7,-1.3,580,620
-4.98600e-02,-1.7,-1.9,20,540
-4.98592e-02,-1.5,-1.1,20,620
-4.98584e-02,-1.7,-2.5,-20,-20
-4.98576e-02,-1.7,-1.3,20,620
-4.98568e-02,-1.7,-1.9,20,-20
-4.98560e-02,-1.7,-1.3,-20,60
-4.98552e-02,-1.7,-1.9,20,-20
-4.98544e-02,-1.7,-1.3,20,60
-4.98536e-02,-1.7,-1.9,20,-20
-4.98528e-02,-1.7,-1.3,20,60
-4.98520e-02,-1.7,-2.1,-20,-20
-4.98512e-02,-1.7,-1.3,20,60
-4.98504e-02,-1.7,-1.9,20,-20
-4.98496e-02,-1.7,-1.3,20,60
-4.98488e-02,-1.7,-2.1,-20,-20
-4.98480e-02,-1.7,-1.5,20,60
-4.98472e-02,-1.7,-2.1,20,-20
-4.98464e-02,-1.7,-1.5,20,60
-4.98456e-02,-1.9,-2.1,20,-20
-4.98448e-02,-1.7,-1.5,20,60
-4.98440e-02,-1.7,-1.9,20,-20
-4.98432e-02,-1.5,-1.5,20,60
-4.98424e-02,-1.7,-1.9,20,-20
-4.98416e-02,-1.7,-1.5,20,60
-4.98408e-02,-1.7,-1.9,20,-20
-4.98400e-02,-1.5,-1.5,20,60
-4.98392e-02,-1.7,-1.9,20,-20
-4.98384e-02,-1.7,-1.5,20,60
-4.98376e-02,-1.7,-1.9,20,-20
-4.98368e-02,-1.7,-1.5,20,60
-4.98360e-02,-1.7,-2.1,20,-20
-4.98352e-02,-1.7,-1.5,20,60
-4.98344e-02,-1.7,-2.1,20,-20
-4.98336e-02,-1.7,-1.5,20,60
-4.98328e-02,-1.7,-2.1,20,-20
-4.98320e-02,-1.5,-1.5,20,60
-4.98312e-02,-1.7,-1.9,-20,-20
-4.98304e-02,-1.7,-1.5,20,60
-4.98296e-02,-1.7,-1.9,20,-20
-4.98288e-02,-1.7,-1.3,20,60
-4.98280e-02,-1.7,-2.1,20,-20
-4.98272e-02,-1.7,-1.5,20,60
-4.98264e-02,-1.7,-2.1,20,-20
-4.98256e-02,-1.7,-1.5,20,60
-4.98248e-02,-1.7,-2.1,20,-20
-4.98240e-02,-1.7,-1.5,20,60
-4.98232e-02,-1.9,-2.1,20,-20
-4.98224e-02,-1.7,-1.5,20,60
-4.98216e-02,-1.7,-2.1,20,-20
-4.98208e-02,-1.7,-1.5,20,60
-4.98200e-02,-1.5,-1.9,20,-20
-4.98192e-02,-1.7,-1.3,-20,60
-4.98184e-02,-1.7,-2.1,20,-20
-4.98176e-02,-1.7,-1.3,20,60
-4.98168e-02,-1.9,-2.1,20,-20
-4.98160e-02,-1.7,-1.5,20,60
-4.98152e-02,-1.7,-2.1,20,-20
-4.98144e-02,-1.7,-1.5,20,60
-4.98136e-02,-1.7,-2.1,20,-20
-4.98128e-02,-1.9,-1.5,20,60
-4.98120e-02,-1.9,-2.1,20,-20
-4.98112e-02,-1.9,-1.5,20,60
-4.98104e-02,-1.7,-2.1,20,-20
-4.98096e-02,-1.7,-1.5,20,60
-4.98088e-02,-1.7,-2.1,20,-20
-4.98080e-02,-1.9,-1.5,20,60
-4.98072e-02,-1.9,-2.1,20,-20
-4.98064e-02,-1.9,-1.5,20,60
-4.98056e-02,-1.7,-2.1,20,-20
-4.98048e-02,-1.9,-1.5,20,60
-4.98040e-02,-1.9,-2.1,20,-20
-4.98032e-02,-1.7,-1.5,20,60
-4.98024e-02,-1.9,-2.1,20,-20
-4.98016e-02,-1.9,-1.5,20,60
-4.98008e-02,-1.7,-2.1,20,-20
-4.98000e-02,-1.9,-1.5,20,60
-4.97992e-02,-1.9,-2.1,20,-20
-4.97984e-02,-1.9,-1.5,20,60
-4.97976e-02,-1.9,-2.1,20,-20
-4.97968e-02,-1.7,-1.5,20,60
-4.97960e-02,-2.3,-2.1,20,-20
-4.97952e-02,-1.9,-1.5,20,60
-4.97944e-02,-1.9,-2.5,-20,-20
-4.97936e-02,-2.1,-1.5,20,60
-4.97928e-02,-1.9,-2.1,-20,-20
-4.97920e-02,-2.1,-1.7,20,60
-4.97912e-02,-1.9,-2.3,20,-20
-4.97904e-02,-1.9,-1.5,20,60
-4.97896e-02,-1.9,-2.3,620,-20
-4.97888e-02,-1.7,-1.7,580,60
-4.97880e-02,-1.9,-2.3,580,-20
-4.97872e-02,-1.7,-1.3,580,660
-4.97864e-02,-2.1,-2.1,580,540
-4.97856e-02,-1.9,-1.5,580,620
-4.97848e-02,-1.7,-2.1,580,540
-4.97840e-02,-1.7,-1.5,620,620
-4.97832e-02,-1.9,-2.1,580,540
-4.97824e-02,-1.9,-1.7,580,620
-4.97816e-02,-1.9,-2.1,580,540
-4.97808e-02,-1.9,-1.5,580,620
-4.97800e-02,-1.7,-2.1,580,540
-4.97792e-02,-1.9,-1.5,580,620
-4.97784e-02,-1.7,-2.1,580,540
-4.97776e-02,-1.9,-1.5,580,620
-4.97768e-02,-1.7,-2.1,580,540
-4.97760e-02,-1.9,-1.5,580,620
-4.97752e-02,-1.7,-2.1,580,540
-4.97744e-02,-1.7,-1.5,580,620
-4.97736e-02,-1.9,-2.1,580,540
-4.97728e-02,-1.7,-1.5,580,620
-4.97720e-02,-1.7,-2.1,580,540
-4.97712e-02,-1.9,-1.5,580,620
-4.97704e-02,-1.7,-2.1,580,540
-4.97696e-02,-1.5,-1.5,580,620
-4.97688e-02,-1.5,-2.1,620,540
-4.97680e-02,-1.5,-1.5,580,620
-4.97672e-02,-1.7,-1.9,580,540
-4.97664e-02,-1.7,-1.5,580,620
-4.97656e-02,-1.5,-1.9,580,540
-4.97648e-02,-1.7,-1.5,580,620
-4.97640e-02,-1.5,-1.9,580,540
-4.97632e-02,-1.5,-1.3,580,620
-4.97624e-02,-1.7,-1.9,580,540
-4.97616e-02,-1.5,-1.5,580,620
-4.97608e-02,-1.5,-1.9,580,540
-4.97600e-02,-1.7,-1.3,580,620
-4.97592e-02,-1.7,-2.1,580,540
-4.97584e-02,-1.5,-1.3,580,620
-4.97576e-02,-1.5,-1.9,580,540
-4.97568e-02,-1.5,-1.3,580,620
-4.97560e-02,-1.5,-1.9,580,540
-4.97552e-02,-1.7,-1.3,540,620
-4.97544e-02,-1.7,-1.9,580,540
-4.97536e-02,-1.7,-1.3,380,620
-4.97528e-02,-1.7,-1.9,20,340
-4.97520e-02,-1.7,-1.3,20,620
-4.97512e-02,-1.7,-1.9,60,-20
-4.97504e-02,-1.7,-1.3,-20,380
-4.97496e-02,-1.9,-1.9,20,-20
-4.97488e-02,-1.7,-1.3,20,60
-4.97480e-02,-1.5,-1.9,20,-20
-4.97472e-02,-1.5,-1.3,20,60
-4.97464e-02,-1.7,-1.9,20,-20
-4.97456e-02,-1.7,-1.3,60,60
-4.97448e-02,-1.7,-1.9,20,-20
-4.97440e-02,-1.7,-1.3,20,60
-4.97432e-02,-1.7,-1.9,20,-20
-4.97424e-02,-1.5,-1.3,20,60
-4.97416e-02,-1.5,-1.9,20,-20
-4.97408e-02,-1.7,-1.3,20,60
-4.97400e-02,-1.9,-1.9,20,-20
-4.97392e-02,-1.7,-1.3,20,60
-4.97384e-02,-1.7,-1.9,20,-20
-4.97376e-02,-1.5,-1.3,-20,60
-4.97368e-02,-1.7,-1.9,20,-20
-4.97360e-02,-1.7,-1.3,20,60
-4.97352e-02,-1.7,-1.9,20,-20
-4.97344e-02,-1.7,-1.3,20,60
-4.97336e-02,-1.7,-1.9,20,-20
-4.97328e-02,-1.7,-1.3,20,60
-4.97320e-02,-1.7,-1.9,20,-20
-4.97312e-02,-1.5,-1.3,20,60
-4.97304e-02,-1.9,-2.1,20,-20
-4.97296e-02,-1.7,-1.3,20,60
-4.97288e-02,-1.9,-1.9,20,-20
-4.97280e-02,-1.9,-1.5,20,60
-4.97272e-02,-1.9,-1.9,20,-20
-4.97264e-02,-1.7,-1.5,20,60
-4.97256e-02,-1.7,-2.1,20,-20
-4.97248e-02,-1.7,-1.5,20,60
-4.97240e-02,-1.5,-1.9,20,-20
-4.97232e-02,-1.7,-1.5,20,60
-4.97224e-02,-1.7,-2.1,20,-20
-4.97216e-02,-1.7,-1.5,20,60
-4.97208e-02,-1.7,-1.9,20,-20
-4.97200e-02,-1.7,-1.5,20,60
-4.97192e-02,-1.9,-1.9,20,-20
-4.97184e-02,-1.7,-1.5,-20,60
-4.97176e-02,-1.7,-1.9,20,-20
-4.97168e-02,-1.5,-1.5,20,60
-4.97160e-02,-1.7,-1.9,20,-20
-4.97152e-02,-1.7,-1.5,20,60
-4.97144e-02,-1.7,-2.1,-20,-20
-4.97136e-02,-1.7,-1.5,20,60
-4.97128e-02,-1.7,-1.9,20,-20
-4.97120e-02,-1.7,-1.5,20,60
-4.97112e-02,-1.7,-1.9,-20,-20
-4.97104e-02,-1.7,-1.5,20,60
-4.97096e-02,-1.9,-1.9,20,-20
-4.97088e-02,-1.9,-1.5,20,60
-4.97080e-02,-1.7,-2.1,20,-20
-4.97072e-02,-1.7,-1.5,20,60
-4.97064e-02,-1.7,-2.1,20,-20
-4.97056e-02,-1.7,-1.5,20,60
-4.97048e-02,-1.7,-1.9,20,-20
-4.97040e-02,-1.9,-1.5,20,60
-4.97032e-02,-1.7,-2.1,20,-20
-4.97024e-02,-1.5,-1.5,20,60
-4.97016e-02,-1.7,-2.1,20,-20
-4.97008e-02,-1.9,-1.5,20,60
-4.97000e-02,-1.7,-1.9,20,-20
-4.96992e-02,-1.7,-1.5,20,60
-4.96984e-02,-1.7,-2.1,20,-20
-4.96976e-02,-1.7,-1.5,20,60
-4.96968e-02,-1.7,-2.1,20,-20
-4.96960e-02,-1.7,-1.5,20,60
-4.96952e-02,-1.5,-2.1,340,-20
-4.96944e-02,-1.7,-1.5,580,60
-4.96936e-02,-1.7,-2.1,580,20
-4.96928e-02,-1.7,-1.3,580,620
-4.96920e-02,-1.7,-1.9,620,540
-4.96912e-02,-1.5,-1.5,580,620
-4.96904e-02,-1.7,-1.9,580,540
-4.96896e-02,-1.7,-1.5,580,620
-4.96888e-02,-1.7,-1.9,580,540
-4.96880e-02,-1.9,-1.5,580,620
-4.96872e-02,-1.7,-2.1,540,540
-4.96864e-02,-1.9,-1.3,580,620
-4.96856e-02,-1.7,-1.9,620,540
-4.96848e-02,-1.7,-1.5,620,620
-4.96840e-02,-1.7,-1.9,580,540
-4.96832e-02,-1.7,-1.3,580,620
-4.96824e-02,-1.7,-1.9,580,540
-4.96816e-02,-1.7,-1.5,580,620
-4.96808e-02,-1.7,-1.9,580,540
-4.96800e-02,-1.7,-1.3,580,620
-4.96792e-02,-1.5,-1.9,580,540
-4.96784e-02,-1.7,-1.3,580,620
-4.96776e-02,-1.7,-1.9,620,540
-4.96768e-02,-1.7,-1.3,580,620
-4.96760e-02,-1.7,-1.9,580,540
-4.96752e-02,-1.7,-1.3,580,620
-4.96744e-02,-1.5,-1.9,580,540
-4.96736e-02,-1.7,-1.3,580,620
-4.96728e-02,-1.5,-1.9,580,540
-4.96720e-02,-1.7,-1.3,580,620
-4.96712e-02,-1.7,-1.9,580,540
-4.96704e-02,-1.5,-1.3,580,620
-4.96696e-02,-1.5,-1.9,580,540
-4.96688e-02,-1.7,-1.3,580,620
-4.96680e-02,-1.7,-1.9,580,540
-4.96672e-02,-1.5,-1.3,580,620
-4.96664e-02,-1.7,-1.9,580,540
-4.96656e-02,-1.7,-1.3,580,620
-4.96648e-02,-1.7,-1.9,580,540
-4.96640e-02,-1.5,-1.3,580,620
-4.96632e-02,-1.7,-1.9,580,540
-4.96624e-02,-1.5,-1.3,580,620
-4.96616e-02,-1.5,-1.9,580,540
-4.96608e-02,-1.5,-1.3,580,620
-4.96600e-02,-1.5,-1.7,580,540
-4.96592e-02,-1.9,-1.3,20,620
-4.96584e-02,-1.5,-2.5,20,20
-4.96576e-02,-1.5,-1.3,-20,620
-4.96568e-02,-1.7,-1.9,20,-20
-4.96560e-02,-1.5,-1.3,-20,60
-4.96552e-02,-1.7,-1.9,20,-20
-4.96544e-02,-1.5,-1.3,20,60
-4.96536e-02,-1.5,-1.9,20,-20
-4.96528e-02,-1.5,-1.3,20,60
-4.96520e-02,-1.5,-1.9,20,-20
-4.96512e-02,-1.5,-1.3,20,60
-4.96504e-02,-1.7,-1.9,20,-20
-4.96496e-02,-1.5,-1.3,20,60
-4.96488e-02,-1.7,-1.9,-20,-20
-4.96480e-02,-1.7,-1.3,20,60
-4.96472e-02,-1.7,-1.9,-20,-20
-4.96464e-02,-1.5,-1.3,20,60
-4.96456e-02,-1.5,-1.9,20,-20
-4.96448e-02,-1.7,-1.5,20,60
-4.96440e-02,-1.5,-1.9,20,-20
-4.96432e-02,-1.5,-1.3,20,60
-4.96424e-02,-1.7,-1.9,20,-20
-4.96416e-02,-1.7,-1.5,20,60
-4.96408e-02,-1.7,-1.9,-20,-20
-4.96400e-02,-1.7,-1.3,20,60
-4.96392e-02,-1.7,-2.1,20,-20
-4.96384e-02,-1.7,-1.5,20,60
-4.96376e-02,-1.7,-1.9,20,-20
-4.96368e-02,-1.7,-1.3,20,60
-4.96360e-02,-1.5,-1.9,20,-20
-4.96352e-02,-1.7,-1.3,-20,60
-4.96344e-02,-1.7,-1.9,20,-20
-4.96336e-02,-1.7,-1.3,20,60
-4.96328e-02,-1.7,-1.9,20,-20
-4.96320e-02,-1.7,-1.3,20,60
-4.96312e-02,-1.7,-1.9,20,-20
-4.96304e-02,-1.7,-1.5,-20,60
-4.96296e-02,-1.9,-1.9,20,-20
-4.96288e-02,-1.7,-1.3,20,60
-4.96280e-02,-1.7,-1.9,20,-20
-4.96272e-02,-1.7,-1.5,60,60
-4.96264e-02,-1.5,-1.9,20,-20
-4.96256e-02,-1.7,-1.5,-20,60
-4.96248e-02,-1.7,-1.9,20,-20
-4.96240e-02,-1.7,-1.5,20,60
-4.96232e-02,-1.7,-1.9,20,-20
-4.96224e-02,-1.5,-1.5,20,60
-4.96216e-02,-1.7,-1.9,-20,-20
-4.96208e-02,-1.7,-1.3,-20,60
-4.96200e-02,-1.7,-2.1,20,-20
-4.96192e-02,-1.7,-1.5,20,60
-4.96184e-02,-1.7,-1.9,20,-20
-4.96176e-02,-1.7,-1.5,20,60
-4.96168e-02,-1.7,-1.9,20,-20
-4.96160e-02,-1.7,-1.3,20,60
-4.96152e-02,-1.5,-1.9,20,-20
-4.96144e-02,-1.5,-1.5,20,60
-4.96136e-02,-1.7,-1.9,20,-20
-4.96128e-02,-1.7,-1.5,20,60
-4.96120e-02,-1.9,-2.1,20,-20
-4.96112e-02,-1.7,-1.5,-20,60
-4.96104e-02,-1.7,-2.1,-20,-20
-4.96096e-02,-1.7,-1.3,20,60
-4.96088e-02,-1.7,-2.1,20,-20
-4.96080e-02,-1.7,-1.5,20,60
-4.96072e-02,-1.7,-2.1,20,-20
-4.96064e-02,-1.7,-1.5,20,60
-4.96056e-02,-1.7,-2.1,20,-20
-4.96048e-02,-1.9,-1.5,-20,60
-4.96040e-02,-1.7,-2.1,20,-20
-4.96032e-02,-1.7,-1.5,20,60
-4.96024e-02,-1.9,-2.1,20,-20
-4.96016e-02,-1.9,-1.5,20,60
-4.96008e-02,-1.7,-2.1,20,-20
-4.96000e-02,-1.7,-1.5,-20,60
-4.95992e-02,-1.9,-2.1,20,-20
-4.95984e-02,-1.7,-1.5,20,60
-4.95976e-02,-1.9,-2.1,-20,-20
-4.95968e-02,-1.7,-1.5,20,60
-4.95960e-02,-1.7,-2.1,20,-20
-4.95952e-02,-1.7,-1.5,20,60
-4.95944e-02,-1.7,-2.3,20,-20
-4.95936e-02,-1.9,-1.5,20,60
-4.95928e-02,-1.9,-2.1,-20,-20
-4.95920e-02,-1.9,-1.5,20,60
-4.95912e-02,-1.5,-2.1,220,-20
-4.95904e-02,-1.7,-1.5,580,60
-4.95896e-02,-1.9,-2.1,580,-20
-4.95888e-02,-1.9,-1.1,580,620
-4.95880e-02,-1.9,-2.1,580,540
-4.95872e-02,-1.7,-1.5,580,660
-4.95864e-02,-1.9,-2.1,580,540
-4.95856e-02,-1.9,-1.5,620,620
-4.95848e-02,-1.7,-2.1,580,540
-4.95840e-02,-1.7,-1.5,580,620
-4.95832e-02,-1.7,-2.1,580,540
-4.95824e-02,-1.7,-1.5,580,620
-4.95816e-02,-1.7,-2.1,580,540
-4.95808e-02,-1.7,-1.5,580,620
-4.95800e-02,-1.7,-2.1,540,540
-4.95792e-02,-1.9,-1.5,580,620
-4.95784e-02,-1.7,-1.9,580,540
-4.95776e-02,-1.7,-1.5,620,620
-4.95768e-02,-1.7,-2.1,620,540
-4.95760e-02,-1.7,-1.5,580,620
-4.95752e-02,-1.7,-1.9,580,540
-4.95744e-02,-1.9,-1.5,580,620
-4.95736e-02,-1.7,-1.9,580,540
-4.95728e-02,-1.7,-1.5,580,620
-4.95720e-02,-1.7,-1.9,580,540
-4.95712e-02,-1.5,-1.5,580,620
-4.95704e-02,-1.7,-1.9,580,540
-4.95696e-02,-1.5,-1.5,580,620
-4.95688e-02,-1.5,-1.9,580,540
-4.95680e-02,-1.7,-1.5,620,620
-4.95672e-02,-1.7,-1.9,580,540
-4.95664e-02,-1.7,-1.3,580,620
-4.95656e-02,-1.7,-1.9,580,540
-4.95648e-02,-1.7,-1.3,580,620
-4.95640e-02,-1.7,-1.9,580,540
-4.95632e-02,-1.7,-1.3,580,620
-4.95624e-02,-1.3,-1.9,580,540
-4.95616e-02,-1.7,-1.3,580,620
-4.95608e-02,-1.5,-1.9,580,540
-4.95600e-02,-1.5,-1.3,580,620
-4.95592e-02,-1.5,-1.9,580,540
-4.95584e-02,-1.5,-1.3,580,620
-4.95576e-02,-1.7,-1.9,580,540
-4.95568e-02,-1.5,-1.3,580,620
-4.95560e-02,-1.5,-1.9,580,540
-4.95552e-02,-1.7,-1.3,580,620
-4.95544e-02,-1.3,-1.9,540,540
-4.95536e-02,-1.5,-1.3,180,620
-4.95528e-02,-1.7,-1.9,20,180
-4.95520e-02,-1.5,-1.3,20,620
-4.95512e-02,-1.5,-1.9,-20,-20
-4.95504e-02,-1.7,-1.3,20,220
-4.95496e-02,-1.5,-1.9,-20,-20
-4.95488e-02,-1.7,-1.3,20,60
-4.95480e-02,-1.5,-1.9,20,-20
-4.95472e-02,-1.7,-1.3,20,60
-4.95464e-02,-1.5,-1.9,20,-20
-4.95456e-02,-1.5,-1.3,20,60
-4.95448e-02,-1.5,-1.9,20,-20
-4.95440e-02,-1.5,-1.3,20,60
-4.95432e-02,-1.7,-1.9,20,-20
-4.95424e-02,-1.5,-1.3,20,60
-4.95416e-02,-1.5,-1.9,20,-20
-4.95408e-02,-1.7,-1.3,20,60
-4.95400e-02,-1.7,-1.9,20,-20
-4.95392e-02,-1.5,-1.3,20,60
-4.95384e-02,-1.7,-1.9,20,-20
-4.95376e-02,-1.7,-1.3,20,60
-4.95368e-02,-1.5,-1.9,20,-20
-4.95360e-02,-1.7,-1.3,20,60
-4.95352e-02,-1.7,-1.9,20,-20
-4.95344e-02,-1.7,-1.3,20,60
-4.95336e-02,-1.7,-1.9,20,-20
-4.95328e-02,-1.7,-1.3,20,60
-4.95320e-02,-1.7,-1.9,20,-20
-4.95312e-02,-1.5,-1.3,20,60
-4.95304e-02,-1.7,-1.9,20,-20
-4.95296e-02,-1.7,-1.3,20,60
-4.95288e-02,-1.7,-1.9,20,-20
-4.95280e-02,-1.7,-1.3,20,60
-4.95272e-02,-1.7,-1.9,20,-20
-4.95264e-02,-1.7,-1.3,20,60
-4.95256e-02,-1.5,-1.9,20,-20
-4.95248e-02,-1.5,-1.3,20,60
-4.95240e-02,-1.7,-1.9,20,-20
-4.95232e-02,-1.7,-1.3,-20,60
-4.95224e-02,-1.7,-1.9,20,-20
-4.95216e-02,-1.7,-1.3,20,60
-4.95208e-02,-1.7,-1.9,20,-20
-4.95200e-02,-1.5,-1.3,20,60
-4.95192e-02,-1.7,-1.9,-20,-20
-4.95184e-02,-1.5,-1.3,20,60
-4.95176e-02,-1.5,-1.9,20,-20
-4.95168e-02,-1.7,-1.5,20,60
-4.95160e-02,-1.7,-1.9,20,-20
-4.95152e-02,-1.7,-1.3,20,60
-4.95144e-02,-1.7,-1.9,20,-20
-4.95136e-02,-1.7,-1.3,20,60
-4.95128e-02,-1.7,-1.9,20,-20
-4.95120e-02,-1.5,-1.3,20,60
-4.95112e-02,-1.7,-1.9,20,-20
-4.95104e-02,-1.7,-1.5,20,60
-4.95096e-02,-1.9,-1.9,20,-20
-4.95088e-02,-1.7,-1.3,-20,60
-4.95080e-02,-1.7,-1.9,20,-20
-4.95072e-02,-1.7,-1.3,20,60
-4.95064e-02,-1.7,-1.9,20,-20
-4.95056e-02,-1.7,-1.3,20,60
-4.95048e-02,-1.7,-1.9,20,-20
-4.95040e-02,-1.7,-1.5,20,60
-4.95032e-02,-1.7,-2.1,20,-20
-4.95024e-02,-1.7,-1.3,20,60
-4.95016e-02,-1.7,-1.9,20,-20
-4.95008e-02,-1.7,-1.5,20,60
-4.95000e-02,-1.7,-2.1,20,-20
-4.94992e-02,-1.7,-1.5,20,60
-4.94984e-02,-1.7,-2.1,20,-20
-4.94976e-02,-1.7,-1.5,20,60
-4.94968e-02,-1.7,-2.1,20,-20
-4.94960e-02,-1.9,-1.5,20,60
-4.94952e-02,-1.9,-2.1,20,-20
-4.94944e-02,-1.9,-1.5,580,60
-4.94936e-02,-1.5,-2.1,580,-20
-4.94928e-02,-1.7,-1.3,580,620
-4.94920e-02,-1.5,-1.9,580,540
-4.94912e-02,-1.5,-1.5,580,620
-4.94904e-02,-1.7,-2.1,580,540
-4.94896e-02,-1.7,-1.5,620,620
-4.94888e-02,-1.7,-1.9,580,540
-4.94880e-02,-1.5,-1.5,580,620
-4.94872e-02,-1.7,-1.9,580,540
-4.94864e-02,-1.7,-1.3,580,620
-4.94856e-02,-1.5,-1.9,580,540
-4.94848e-02,-1.7,-1.3,580,620
-4.94840e-02,-1.7,-1.9,580,540
-4.94832e-02,-1.7,-1.3,580,620
-4.94824e-02,-1.5,-1.9,580,540
-4.94816e-02,-1.7,-1.3,580,620
-4.94808e-02,-1.7,-1.9,580,540
-4.94800e-02,-1.7,-1.3,580,620
